[
  {
    "petRef": "10001",
    "petName": "Alfie",
    "speciesName": "Dog",
    "breed": "Staffie",
    "regDate": "19/09/2010",
    "canFly": "FALSE",
    "canRun": "TRUE",
    "canSwim": "TRUE"
  },
  {
    "petRef": "10002",
    "petName": "Whiskers",
    "speciesName": "Cat",
    "breed": "Russian Blue",
    "regDate": "09/02/2023",
    "canFly": "FALSE",
    "canRun": "TRUE",
    "canSwim": "TRUE"
  }
]
